[gd_scene format=2]

[node name="Mergulho" type="Node2D"]

[node name="CPUParticles2D" type="CPUParticles2D" parent="."]
emitting = false
amount = 300
lifetime = 1.5
one_shot = true
speed_scale = 3.0
explosiveness = 1.0
randomness = 1.0
emission_shape = 1
emission_sphere_radius = 1.0
spread = 180.0
gravity = Vector2( 0, 0 )
initial_velocity = 18.23
linear_accel = 6.89
radial_accel = 44.82
radial_accel_random = 1.0
scale_amount = 5.0
scale_amount_random = 0.44
