[gd_scene load_steps=5 format=2]

[ext_resource path="res://Scripts/Bala.gd" type="Script" id=1]
[ext_resource path="res://Scripts/BalaArea.gd" type="Script" id=2]
[ext_resource path="res://Assets/inimigos/homem_atirando/Bala/bala.png" type="Texture" id=3]

[sub_resource type="RectangleShape2D" id=1]
extents = Vector2( 8.53861, 3.85818 )

[node name="Bala" type="Node2D"]
scale = Vector2( 0.6, 0.6 )
script = ExtResource( 1 )

[node name="Bala" type="Area2D" parent="."]
collision_layer = 2
collision_mask = 0
script = ExtResource( 2 )

[node name="Sprite" type="Sprite" parent="Bala"]
texture = ExtResource( 3 )

[node name="CollisionShape2D" type="CollisionShape2D" parent="Bala"]
visible = false
shape = SubResource( 1 )

[node name="fumaca" type="Node2D" parent="Bala"]
position = Vector2( -5.18531, 0.0997178 )

[node name="Timer" type="Timer" parent="Bala"]
wait_time = 0.1
[connection signal="area_entered" from="Bala" to="." method="_on_Bala_area_entered"]
[connection signal="timeout" from="Bala/Timer" to="Bala" method="_on_Timer_timeout"]
