[gd_scene format=2]

[node name="Fumaca" type="Node2D"]

[node name="CPUParticles2D" type="CPUParticles2D" parent="."]
scale = Vector2( 2, 2 )
amount = 100
lifetime = 1.39
emission_shape = 1
emission_sphere_radius = 2.0
spread = 66.72
initial_velocity = 0.0
radial_accel = 17.24
radial_accel_random = 1.0
damping = 70.69
damping_random = 1.0
angle = 45.0
angle_random = 1.0
color = Color( 0.733333, 0.701961, 0.701961, 1 )
hue_variation = 1.0
anim_speed_random = 1.0
