[gd_scene load_steps=4 format=2]

[ext_resource path="res://Assets/caminhonete_heroi/lanca_missel/base.png" type="Texture" id=1]
[ext_resource path="res://Assets/caminhonete_heroi/lanca_missel/base_lancador.png" type="Texture" id=2]
[ext_resource path="res://Assets/caminhonete_heroi/lanca_missel/front_lancador.png" type="Texture" id=3]

[node name="Lancador_missel" type="Node2D"]
scale = Vector2( 0.4, 0.4 )

[node name="Base" type="Sprite" parent="."]
z_index = -1
texture = ExtResource( 1 )

[node name="Base_lancador" type="Sprite" parent="."]
position = Vector2( -25.6063, 3.4917 )
scale = Vector2( 0.563536, 0.722756 )
texture = ExtResource( 2 )

[node name="Base_lancador2" type="Sprite" parent="."]
position = Vector2( 25.8364, 3.44674 )
scale = Vector2( 0.563536, 0.722756 )
texture = ExtResource( 2 )

[node name="Front_lancador" type="Sprite" parent="."]
position = Vector2( -25.8391, 5.97572 )
scale = Vector2( 0.578085, 0.622486 )
z_index = 2
texture = ExtResource( 3 )

[node name="Front_lancador2" type="Sprite" parent="."]
position = Vector2( 25.6036, 5.93076 )
scale = Vector2( 0.578085, 0.622486 )
z_index = 2
texture = ExtResource( 3 )
