[gd_scene load_steps=4 format=2]

[ext_resource path="res://Scripts/Bomba.gd" type="Script" id=1]
[ext_resource path="res://Assets/inimigos/homem_bazuca/bazuca.png" type="Texture" id=2]

[sub_resource type="RectangleShape2D" id=1]
extents = Vector2( 33.7527, 11.6799 )

[node name="Bomba_bazuca" type="Node2D"]

[node name="Bomba" type="Area2D" parent="."]
scale = Vector2( 0.5, 0.5 )
collision_layer = 2
collision_mask = 0
script = ExtResource( 1 )

[node name="Sprite" type="Sprite" parent="Bomba"]
texture = ExtResource( 2 )

[node name="CollisionShape2D" type="CollisionShape2D" parent="Bomba"]
shape = SubResource( 1 )

[node name="Timer_fumaca" type="Timer" parent="Bomba"]
wait_time = 0.02

[node name="Fumaca" type="Node2D" parent="Bomba"]
position = Vector2( -40.5827, -1.08221 )
[connection signal="timeout" from="Bomba/Timer_fumaca" to="Bomba" method="_on_Timer_fumaca_timeout"]
