[gd_scene load_steps=7 format=2]

[ext_resource path="res://Assets/explosoes/explosao_descarga_ele/1.png" type="Texture" id=1]
[ext_resource path="res://Assets/explosoes/explosao_descarga_ele/2.png" type="Texture" id=2]
[ext_resource path="res://Assets/explosoes/explosao_descarga_ele/3.png" type="Texture" id=3]
[ext_resource path="res://Assets/explosoes/explosao_descarga_ele/4.png" type="Texture" id=4]
[ext_resource path="res://Assets/explosoes/explosao_descarga_ele/5.png" type="Texture" id=5]

[sub_resource type="SpriteFrames" id=1]
animations = [ {
"frames": [ ExtResource( 1 ), ExtResource( 2 ), ExtResource( 3 ), ExtResource( 4 ), ExtResource( 5 ) ],
"loop": true,
"name": "default",
"speed": 10.0
} ]

[node name="Explosao_eletrica" type="Node2D"]

[node name="AnimatedSprite" type="AnimatedSprite" parent="."]
scale = Vector2( 1.5, 1.5 )
frames = SubResource( 1 )
frame = 1
playing = true
